<?xml version="1.0" standalone="no"?>
<!-- Generator: Adobe Fireworks 10, Export SVG Extension by Aaron Beall (http://fireworks.abeall.com) . Version: 0.6.1  -->
<!DOCTYPE svg PUBLIC "-//W3C//DTD SVG 1.1//EN" "http://www.w3.org/Graphics/SVG/1.1/DTD/svg11.dtd">
<svg id="Untitled-Page%201" viewBox="0 0 500 500" style="background-color:#ffffff00" version="1.1"
	xmlns="http://www.w3.org/2000/svg" xmlns:xlink="http://www.w3.org/1999/xlink" xml:space="preserve"
	x="0px" y="0px" width="500px" height="500px"
>
	<g id="Layer%201">
		<path id="Polygon" d="M 354.2609 203.2962 C 374.5797 229.0895 374.5797 270.9105 354.2609 296.7038 L 206.2983 484.4712 C 185.9735 510.2645 169.5 503.1966 169.5 468.6876 L 169.5 31.3125 C 169.5 -3.1966 185.9735 -10.2644 206.2983 15.5289 L 354.2609 203.2962 Z" fill="#ffffff"/>
	</g>
</svg>