<?xml version="1.0" standalone="no"?>
<!-- Generator: Adobe Fireworks 10, Export SVG Extension by Aaron Beall (http://fireworks.abeall.com) . Version: 0.6.1  -->
<!DOCTYPE svg PUBLIC "-//W3C//DTD SVG 1.1//EN" "http://www.w3.org/Graphics/SVG/1.1/DTD/svg11.dtd">
<svg id="Untitled-Page%201" viewBox="0 0 67 80" style="background-color:#ffffff00" version="1.1"
	xmlns="http://www.w3.org/2000/svg" xmlns:xlink="http://www.w3.org/1999/xlink" xml:space="preserve"
	x="0px" y="0px" width="67px" height="80px"
>
	<g id="Layer%201">
		<path d="M 39.9868 36.9373 C 39.5811 33.2313 36.6891 31.9973 34.2151 31.3368 L 34.2151 27.4071 C 35.2163 27.4556 35.8662 27.7388 36.0143 27.8103 C 36.3076 27.9515 36.6506 27.9501 36.9438 27.8054 C 37.2361 27.6605 37.4474 27.3892 37.5172 27.067 L 37.9341 25.1437 C 38.0425 24.6443 37.7874 24.1366 37.3253 23.9282 C 36.4888 23.5494 35.3972 23.3494 34.2151 23.3384 L 34.2151 21.5104 C 34.2151 21.0504 33.8462 20.6793 33.3923 20.6793 C 32.9371 20.6793 32.5695 21.0518 32.5695 21.5104 L 32.5695 23.4491 C 28.85 23.985 26.4331 26.6993 26.7943 30.0052 C 27.09 32.703 28.9856 34.4624 32.5695 35.3846 L 32.5695 39.8649 C 31.5618 39.8698 30.5249 39.6503 29.6953 39.2341 C 29.3965 39.0846 29.0466 39.084 28.7484 39.2335 C 28.4509 39.3817 28.2369 39.6627 28.1726 39.9916 L 27.7872 41.9652 C 27.6946 42.4353 27.9216 42.9116 28.3433 43.1318 C 29.3766 43.6726 31.0132 43.9801 32.5695 43.9573 L 32.5695 45.7839 C 32.5695 46.2437 32.9385 46.6147 33.3923 46.6147 C 33.8469 46.6147 34.2151 46.2422 34.2151 45.7839 L 34.2151 43.7944 C 38.6252 43.0189 40.3079 39.8566 39.9868 36.9373 ZM 31.1639 29.2524 C 31.0933 28.6072 31.4473 27.8782 32.5695 27.5629 L 32.5695 30.7988 C 31.3896 30.3015 31.2284 29.8375 31.1639 29.2524 ZM 34.2151 39.6108 L 34.2151 35.9193 C 35.3671 36.4332 35.5411 36.9976 35.6083 37.611 C 35.7373 38.7847 34.968 39.3442 34.2151 39.6108 Z" fill="#ffffff"/>
		<path d="M 33.5007 56.7893 C 20.9658 56.7893 10.7689 46.4905 10.7689 33.8328 C 10.7689 21.1733 20.9672 10.874 33.5007 10.874 C 46.0358 10.874 56.234 21.1733 56.234 33.8328 C 56.234 46.4905 46.0358 56.7893 33.5007 56.7893 ZM 33.5007 13.9812 C 22.6627 13.9812 13.8452 22.886 13.8452 33.8314 C 13.8452 44.777 22.6627 53.6818 33.5007 53.6818 C 44.338 53.6818 53.1554 44.777 53.1554 33.8314 C 53.1554 22.886 44.338 13.9812 33.5007 13.9812 Z" fill="#ffffff"/>
		<path d="M 33.5385 80 L 32.2192 78.9352 C 32.1335 78.866 23.587 71.9387 14.2596 62.52 C 5.0106 53.1812 0 45.8425 0 33.8328 C 0 15.1775 15.0287 0 33.4993 0 C 51.9722 0 67 15.1775 67 33.8328 C 67 43.3136 62.202 52.9658 52.7401 62.52 C 46.0728 69.2534 34.9364 78.8022 34.8254 78.8977 L 33.5385 80 ZM 33.5007 4.1427 C 17.29 4.1427 4.1036 17.4613 4.1036 33.8328 C 4.1036 43.349 7.2761 49.608 17.1613 59.5909 C 24.1973 66.6969 30.7616 72.343 33.4733 74.6155 C 36.5917 71.9082 44.6302 64.8536 49.8412 59.5909 C 55.798 53.5758 62.8986 44.2229 62.8986 33.8328 C 62.8986 17.4613 49.7108 4.1427 33.5007 4.1427 Z" fill="#ffffff"/>
	</g>
</svg>