<?xml version="1.0" encoding="utf-8"?>
<!-- Generator: Adobe Illustrator 19.1.1, SVG Export Plug-In . SVG Version: 6.00 Build 0)  -->
<svg version="1.1" id="Layer_1" xmlns="http://www.w3.org/2000/svg" xmlns:xlink="http://www.w3.org/1999/xlink" x="0px" y="0px"
	 viewBox="0 0 105 85" enable-background="new 0 0 105 85" xml:space="preserve">
<g>
	<path fill-rule="evenodd" clip-rule="evenodd" fill="#FFFFFF" d="M7.9,37.7c-0.9,0-1.8-0.4-2.5-1.2c-0.6-0.8-0.8-1.7-0.7-2.7
		c0.3-1.5,1.7-2.6,3.3-2.6h33.3v6.4H7.9L7.9,37.7z M70,36.1H44.5v-3.2H70V36.1z M71.8,16.1c0.3-0.6,0.8-0.9,1.4-0.9h19.1
		c0.6,0,1.2,0.3,1.4,0.9c0.3,0.5,0.2,1.2-0.2,1.7l-0.5,0.6H81.2c-0.9,0-1.6,0.7-1.6,1.6c0,0.9,0.7,1.6,1.6,1.6h11.2v25.7H81.2
		c-0.9,0-1.6,0.7-1.6,1.6c0,0.9,0.7,1.6,1.6,1.6h11.9l0.5,0.6c0.4,0.5,0.4,1.1,0.2,1.7c-0.3,0.6-0.8,0.9-1.4,0.9H73.2
		c-0.6,0-1.2-0.3-1.4-0.9c-0.3-0.6-0.2-1.2,0.2-1.7l0.5-0.6h2.4c0.9,0,1.6-0.7,1.6-1.6c0-0.9-0.7-1.6-1.6-1.6h-1.6V21.6h1.6
		c0.9,0,1.6-0.7,1.6-1.6c0-0.9-0.7-1.6-1.6-1.6h-2.4l-0.5-0.6C71.6,17.3,71.5,16.6,71.8,16.1z M70,39.3v9.1l-0.6,0.9
		c-1.1,1.5-1.3,3.4-0.4,5c0.8,1.7,2.4,2.7,4.3,2.7h19.1c1.8,0,3.5-1,4.3-2.7c0.8-1.6,0.7-3.6-0.4-5l-0.6-0.9V20.6l0.6-0.9
		c1.1-1.5,1.3-3.4,0.4-5C95.8,13,94.2,12,92.3,12H73.2c-1.8,0-3.5,1-4.3,2.7c-0.8,1.6-0.7,3.6,0.4,5l0.6,0.8v9.1H44.1
		c-0.5-1-1.6-1.6-2.8-1.6H8.1c-3.2,0-5.9,2.2-6.4,5.1C1.3,35.1,1.7,37,3,38.5c1.2,1.5,3,2.3,4.9,2.3h33.5c1.2,0,2.2-0.6,2.8-1.6H70z
		"/>
	<path fill-rule="evenodd" clip-rule="evenodd" fill="#FFFFFF" d="M100.3,69.8H65.3v-1.6c0-0.9,0.7-1.6,1.6-1.6h31.9
		c0.9,0,1.6,0.7,1.6,1.6V69.8z M98.7,63.4H66.8c-2.6,0-4.8,2.2-4.8,4.8v3c0,1,0.8,1.8,1.8,1.8h37.9c1,0,1.8-0.8,1.8-1.8v-3
		C103.5,65.5,101.3,63.4,98.7,63.4z"/>
</g>
</svg>
