<?xml version="1.0" standalone="no"?>
<!-- Generator: Adobe Fireworks 10, Export SVG Extension by Aaron Beall (http://fireworks.abeall.com) . Version: 0.6.1  -->
<!DOCTYPE svg PUBLIC "-//W3C//DTD SVG 1.1//EN" "http://www.w3.org/Graphics/SVG/1.1/DTD/svg11.dtd">
<svg id="Untitled-Page%201" viewBox="0 0 120 120" style="background-color:#ffffff00" version="1.1"
	xmlns="http://www.w3.org/2000/svg" xmlns:xlink="http://www.w3.org/1999/xlink" xml:space="preserve"
	x="0px" y="0px" width="120px" height="120px"
>
	<g id="Layer%201">
		<path d="M 119 61.9368 L 119 110.0804 C 119 111.6926 117.7005 113 116.0982 113 L 3.9017 113 C 2.2993 113 1 111.6926 1 110.0804 L 1 76.0153 C 1 74.9083 1.6221 73.8969 2.6063 73.4029 L 30.6554 59.3245 C 31.5548 58.8731 32.6227 58.922 33.4769 59.4541 C 34.3318 59.986 34.8523 60.9254 34.8523 61.9368 L 34.8523 71.2963 L 52.0283 62.6754 L 52.0283 34.1621 C 52.0283 32.55 53.3276 31.2426 54.9299 31.2426 L 60.1959 31.2426 C 61.798 31.2426 63.0975 32.55 63.0975 34.1621 L 63.0975 71.198 L 82.2604 61.5801 L 83.4468 9.8524 C 83.4834 8.2663 84.771 7 86.3476 7 L 98.9971 7 C 100.5732 7 101.8617 8.2663 101.8981 9.8524 L 103.1669 65.1652 L 114.8029 59.325 C 115.7025 58.8736 116.7697 58.9227 117.6246 59.4546 C 118.4795 59.9865 119 60.9254 119 61.9368 ZM 21.3568 89.3724 L 13.5078 89.3724 L 13.5078 100.4699 L 21.3568 100.4699 L 21.3568 89.3724 ZM 42.6113 89.3724 L 34.7624 89.3724 L 34.7624 100.4699 L 42.6113 100.4699 L 42.6113 89.3724 ZM 63.8665 89.3724 L 56.0175 89.3724 L 56.0175 100.4699 L 63.8665 100.4699 L 63.8665 89.3724 ZM 85.1216 89.3724 L 77.2726 89.3724 L 77.2726 100.4699 L 85.1216 100.4699 L 85.1216 89.3724 L 85.1216 89.3724 Z" stroke="#ffffff" stroke-width="2" fill="none"/>
		<path visibility="hidden" d="M 33.7699 75.9709 L 33.7142 50.5729 C 33.7115 49.4162 34.8937 48.634 35.9572 49.0886 L 57.3641 58.2393 C 57.9557 58.4924 58.3397 59.0728 58.3415 59.7161 L 58.3972 85.1138 C 58.3998 86.2711 57.2177 87.0533 56.1536 86.5986 L 34.7469 77.4478 C 34.1554 77.1946 33.7713 76.6142 33.7699 75.9709 ZM 85.0023 48.8431 C 85.8516 48.8408 86.6133 49.5237 86.6156 50.4515 L 86.6717 75.8493 C 86.6731 76.4924 86.2913 77.0748 85.701 77.3305 L 64.3378 86.5828 C 64.1273 86.6745 63.9111 86.717 63.7007 86.7172 C 62.8517 86.7194 62.0897 86.0364 62.0878 85.1092 L 62.032 59.7114 C 62.0306 59.0684 62.4117 58.4857 63.0023 58.2302 L 84.3656 48.9779 C 84.576 48.8862 84.7919 48.8438 85.0023 48.8431 L 85.0023 48.8431 ZM 59.8483 32.0859 C 60.0707 32.0853 60.2936 32.131 60.5015 32.2231 L 83.0239 42.1512 C 84.3018 42.7145 84.3058 44.526 83.0309 45.0953 L 60.5558 55.1302 C 60.348 55.2231 60.1253 55.2697 59.903 55.27 C 59.6806 55.2709 59.4577 55.2252 59.2498 55.1335 L 36.7271 45.2048 C 35.4495 44.6414 35.4454 42.8303 36.7204 42.2608 L 59.1954 32.226 C 59.4032 32.1328 59.6256 32.0865 59.8483 32.0859 L 59.8483 32.0859 ZM 65.0189 105.4028 L 65.0189 93.2343 L 55.0026 93.2343 L 55.0026 105.4028 L 45.4072 105.4028 L 60.0092 120 L 74.6132 105.4028 L 65.0189 105.4028 ZM 105.403 54.9812 L 93.2344 54.9812 L 93.2344 64.9974 L 105.403 64.9974 L 105.403 74.5927 L 120 59.991 L 105.403 45.3864 L 105.403 54.9812 ZM 54.9809 14.5972 L 54.9809 26.7657 L 64.9974 26.7657 L 64.9974 14.5972 L 74.5928 14.5972 L 59.9908 0 L 45.3868 14.5972 L 54.9809 14.5972 ZM 14.5969 65.0188 L 26.7656 65.0188 L 26.7656 55.0026 L 14.5969 55.0026 L 14.5969 45.4073 L 0 60.009 L 14.5969 74.6133 L 14.5969 65.0188 Z" stroke="#ffffff" stroke-width="2" fill="none"/>
		<g visibility="hidden">
			<path d="M 77.3995 83.8016 C 77.1243 83.4581 76.7087 83.2582 76.2707 83.2582 L 46.8446 83.2582 C 46.4056 83.2582 45.9898 83.4581 45.7146 83.8016 L 38.6443 92.6399 C 38.2956 93.0751 38.2278 93.6727 38.4679 94.1754 C 38.7095 94.6798 39.2164 95 39.7731 95 L 83.3378 95 C 83.8965 95 84.4014 94.6798 84.6432 94.1754 C 84.8857 93.6727 84.8156 93.0751 84.4687 92.6399 L 77.3995 83.8016 ZM 42.7913 92.0958 L 47.5413 86.16 L 75.5745 86.16 L 80.324 92.0958 L 42.7913 92.0958 Z" stroke="#ffffff" stroke-width="2" fill="none"/>
			<path d="M 118.6496 77.1097 L 115.0171 77.1097 L 115.0171 27.707 L 118.6496 27.707 C 119.3951 27.707 120 27.101 120 26.3541 C 120 25.6069 119.3951 25 118.6496 25 L 113.6681 25 L 11.4626 25 L 1.35 25 C 0.604 25 0 25.6061 0 26.3524 C 0 27.0992 0.604 27.707 1.35 27.707 L 10.112 27.707 L 10.112 77.1097 L 1.35 77.1097 C 0.604 77.1097 0 77.7147 0 78.4622 C 0 79.2096 0.604 79.8151 1.35 79.8151 L 26.0633 79.8151 L 48.3909 79.8151 L 76.7394 79.8151 L 99.0665 79.8151 L 118.6496 79.8151 C 119.3951 79.8151 120 79.2096 120 78.4622 C 120 77.7147 119.3951 77.1097 118.6496 77.1097 ZM 24.7136 77.1097 L 12.813 77.1097 L 12.813 37.0067 L 24.7136 37.0067 L 24.7136 77.1097 ZM 47.0405 77.1097 L 27.4139 77.1097 L 27.4139 37.0067 L 47.0405 37.0067 L 47.0405 77.1097 ZM 72.0421 57.0612 L 72.0421 57.0612 C 72.0421 57.1693 72.0197 57.2744 71.9801 57.3727 C 71.9387 57.4673 71.8801 57.5551 71.8083 57.6265 C 71.8083 57.6265 71.8066 57.6302 71.8049 57.6307 L 69.4543 59.9652 C 69.298 60.119 69.0952 60.1976 68.8907 60.1976 C 68.6846 60.1976 68.48 60.1185 68.322 59.9601 C 68.0125 59.6469 68.0142 59.1387 68.327 58.8282 L 69.3015 57.8615 L 55.8387 57.8615 L 56.8112 58.83 C 57.126 59.1406 57.1266 59.6469 56.8159 59.9618 C 56.6593 60.119 56.4545 60.1976 56.2489 60.1976 C 56.0449 60.1976 55.8413 60.119 55.6854 59.9652 L 53.3369 57.6302 L 53.3369 57.6302 C 53.2623 57.5568 53.2037 57.4673 53.1635 57.371 C 53.1232 57.2744 53.1008 57.1693 53.1008 57.0629 C 53.1008 56.9557 53.1232 56.8497 53.1635 56.7527 C 53.2037 56.6555 53.264 56.5677 53.3369 56.4943 L 53.3369 56.4943 L 55.6871 54.1581 C 56.0012 53.8494 56.5039 53.8494 56.8164 54.1636 C 57.1266 54.4772 57.126 54.9835 56.8112 55.2958 L 55.8387 56.2614 L 69.3015 56.2614 L 68.3304 55.2958 C 68.0176 54.9835 68.0142 54.4772 68.3255 54.1636 C 68.6346 53.8502 69.1415 53.8494 69.4543 54.1581 L 71.8032 56.4921 C 71.8784 56.5669 71.9387 56.6555 71.9801 56.7544 C 72.0008 56.7993 72.0008 56.848 72.0094 56.8939 C 72.0215 56.9489 72.0421 57.0013 72.0421 57.0612 L 72.0421 57.0612 ZM 97.7143 77.1097 L 78.0902 77.1097 L 78.0902 37.0067 L 97.716 37.0067 L 97.716 77.1097 L 97.7143 77.1097 ZM 112.318 77.1097 L 100.417 77.1097 L 100.417 37.0067 L 112.318 37.0067 L 112.318 77.1097 ZM 112.318 34.2997 L 99.0665 34.2997 L 76.7394 34.2997 L 48.3909 34.2997 L 26.0633 34.2997 L 12.813 34.2997 L 12.813 27.7053 L 112.318 27.7053 L 112.318 34.2997 Z" stroke="#ffffff" stroke-width="2" fill="none"/>
		</g>
		<path visibility="hidden" d="M 44.4636 73.5396 C 38.9244 73.5396 34.4482 78.0122 34.4482 83.5277 C 34.4482 89.0268 38.9244 93.5 44.4636 93.5 C 50.0026 93.5 54.479 89.0268 54.479 83.5277 C 54.4786 78.0122 50.0026 73.5396 44.4636 73.5396 ZM 120 66.1616 L 120 76.8099 C 120 79.4661 117.8374 81.6199 115.1693 81.6199 L 110.001 81.6199 C 109.067 75.2386 103.5441 70.3328 96.8779 70.3328 C 90.2283 70.3328 84.7051 75.2388 83.7711 81.6199 L 57.5736 81.6199 C 56.6394 75.2386 51.1167 70.3328 44.4666 70.3328 C 37.8168 70.3328 32.2937 75.2388 31.3601 81.6199 L 24.8872 81.6199 C 22.2191 81.6199 20.0566 79.4664 20.0566 76.8099 L 20.0566 66.1616 L 120 66.1616 L 120 66.1616 ZM 96.8909 73.5396 C 91.3516 73.5396 86.8594 78.0122 86.8594 83.5277 C 86.8594 89.0268 91.3521 93.5 96.8909 93.5 C 102.4135 93.5 106.9059 89.0268 106.9059 83.5277 C 106.9059 78.0122 102.4135 73.5396 96.8909 73.5396 ZM 118.0969 55.4387 L 99.113 36.7446 C 97.9054 35.5583 96.2789 34.8848 94.5883 34.8848 L 85.0079 34.8848 L 85.0079 31.3095 C 85.0079 28.6483 82.8505 26.5 80.1775 26.5 L 24.8838 26.5 C 22.2269 26.5 20.0533 28.6486 20.0533 31.3095 L 20.0533 32.0632 L 0.451 34.3127 L 35.1854 38.8163 L 0 42.2966 L 35.0614 47.2603 L 0 50.287 L 20.0546 54.053 L 20.0532 63.5029 L 119.9967 63.5029 L 119.9967 59.9918 C 119.9967 58.2765 119.3043 56.641 118.0969 55.4387 ZM 109.8204 56.0636 L 91.4482 56.0636 C 91.0299 56.0636 90.6917 55.7272 90.6917 55.3105 L 90.6917 41.1857 C 90.6917 40.769 91.0299 40.4322 91.4482 40.4322 L 94.9427 40.4322 C 95.1359 40.4322 95.3291 40.5123 95.4741 40.6406 L 110.3361 54.7654 C 110.8345 55.2302 110.4966 56.0636 109.8204 56.0636 Z" stroke="#ffffff" stroke-width="2" fill="none"/>
		<g visibility="hidden">
			<path d="M 103.9205 101.6302 L 103.9205 93.2509 L 15.0747 93.2509 L 15.0747 101.6302 L 7 101.6302 L 7 110 L 15.0747 110 L 103.9205 110 L 112 110 L 112 101.6302 L 103.9205 101.6302 Z" stroke="#ffffff" stroke-width="2" fill="none"/>
			<path d="M 75.4492 87.4952 L 77.2964 87.4952 L 86.6934 87.4952 L 93.2452 87.4952 L 99.7971 87.4952 L 99.7971 38.1015 L 93.2452 38.1015 L 86.6934 38.1015 L 77.2964 38.1015 L 64.1941 38.1015 L 54.7909 38.1015 L 41.6871 38.1015 L 32.2903 38.1015 L 22.9489 38.1015 L 19.1818 38.1015 L 19.1818 87.4952 L 25.7391 87.4952 L 32.2903 87.4952 L 41.6871 87.4952 L 43.535 87.4952 L 54.7909 87.4952 L 54.7909 68.6265 L 64.1941 68.6265 L 64.1941 87.4952 L 75.4492 87.4952 ZM 86.6934 47.6933 L 86.6934 60.0103 L 77.2964 60.0103 L 77.2964 47.6933 L 86.6934 47.6933 ZM 41.6871 47.6933 L 41.6871 60.0103 L 32.2903 60.0103 L 32.2903 47.6933 L 41.6871 47.6933 ZM 41.6871 68.7501 L 41.6871 81.0788 L 32.2903 81.0788 L 32.2903 68.7501 L 41.6871 68.7501 ZM 86.5209 68.7501 L 86.5209 81.0788 L 77.1224 81.0788 L 77.1224 68.7501 L 86.5209 68.7501 ZM 54.7909 60.0103 L 54.7909 47.6933 L 64.1941 47.6933 L 64.1941 60.0103 L 54.7909 60.0103 Z" stroke="#ffffff" stroke-width="2" fill="none"/>
			<path d="M 58.5682 10 L 7.2843 31.1127 L 111.6882 31.1127 L 58.5682 10 Z" stroke="#ffffff" stroke-width="2" fill="none"/>
		</g>
	</g>
</svg>