<?xml version="1.0" encoding="utf-8"?>
<!-- Generator: Adobe Illustrator 19.1.1, SVG Export Plug-In . SVG Version: 6.00 Build 0)  -->
<svg version="1.1" id="Layer_1" xmlns="http://www.w3.org/2000/svg" xmlns:xlink="http://www.w3.org/1999/xlink" x="0px" y="0px"
	 viewBox="0 0 105 85" enable-background="new 0 0 105 85" xml:space="preserve">
<g>
	<path fill-rule="evenodd" clip-rule="evenodd" fill="#FFFFFF" d="M82.8,47.1h-4.7v-4.6h4.7V47.1z M82.8,56.4h-4.7v-4.6h4.7V56.4z
		 M82.8,65.6h-4.7V61h4.7V65.6z M82.8,74.9h-4.7v-4.6h4.7V74.9z M73.5,74.9h-14V61h-4.7v13.9h-14V10.1h32.7V74.9z M36.2,74.9h-14V24
		h14V74.9z M82.8,37.9h-4.7V10.1c0-2.5-2.1-4.6-4.7-4.6H40.8c-2.6,0-4.7,2.1-4.7,4.6v9.3h-14c-2.6,0-4.7,2.1-4.7,4.6v50.9
		c0,2.6,2.1,4.6,4.7,4.6h60.7c2.6,0,4.7-2.1,4.7-4.6V42.5C87.5,40,85.4,37.9,82.8,37.9z M59.5,51.8h-4.7v4.6h4.7V51.8z M31.5,65.6
		h-4.7v4.6h4.7V65.6z M31.5,56.4h-4.7V61h4.7V56.4z M31.5,47.1h-4.7v4.6h4.7V47.1z M31.5,37.9h-4.7v4.6h4.7V37.9z M68.8,33.3h-4.7
		v4.6h4.7V33.3z M59.5,33.3h-4.7v4.6h4.7V33.3z M50.2,33.3h-4.7v4.6h4.7V33.3z M68.8,61h-4.7v4.6h4.7V61z M50.2,61h-4.7v4.6h4.7V61z
		 M68.8,51.8h-4.7v4.6h4.7V51.8z M50.2,51.8h-4.7v4.6h4.7V51.8z M68.8,42.5h-4.7v4.6h4.7V42.5z M59.5,42.5h-4.7v4.6h4.7V42.5z
		 M50.2,42.5h-4.7v4.6h4.7V42.5z M68.8,14.8h-4.7v4.6h4.7V14.8z M59.5,14.8h-4.7v4.6h4.7V14.8z M50.2,14.8h-4.7v4.6h4.7V14.8z
		 M68.8,24h-4.7v4.6h4.7V24z M59.5,24h-4.7v4.6h4.7V24z M50.2,24h-4.7v4.6h4.7V24z M31.5,28.6h-4.7v4.6h4.7V28.6z"/>
</g>
</svg>
